%YAML 1.1
%TAG !u! tag:unity3d.com,2011:
--- !u!114 &-9198636326382479249
MonoBehaviour:
  m_ObjectHideFlags: 3
  m_CorrespondingSourceObject: {fileID: 0}
  m_PrefabInstance: {fileID: 0}
  m_PrefabAsset: {fileID: 0}
  m_GameObject: {fileID: 0}
  m_Enabled: 1
  m_EditorHideFlags: 0
  m_Script: {fileID: 11500000, guid: 2c1be1b6c95cd2e41b27903b9270817f, type: 3}
  m_Name: Vignette
  m_EditorClassIdentifier: 
  active: 1
  m_AdvancedMode: 0
  mode:
    m_OverrideState: 1
    m_Value: 0
  color:
    m_OverrideState: 1
    m_Value: {r: 0, g: 0, b: 0, a: 1}
    hdr: 0
    showAlpha: 0
    showEyeDropper: 1
  center:
    m_OverrideState: 1
    m_Value: {x: 0.5, y: 0.5}
  intensity:
    m_OverrideState: 1
    m_Value: 0.311
    min: 0
    max: 1
  smoothness:
    m_OverrideState: 1
    m_Value: 0.2
    min: 0.01
    max: 1
  roundness:
    m_OverrideState: 1
    m_Value: 1
    min: 0
    max: 1
  rounded:
    m_OverrideState: 1
    m_Value: 0
  mask:
    m_OverrideState: 1
    m_Value: {fileID: 0}
  opacity:
    m_OverrideState: 1
    m_Value: 1
    min: 0
    max: 1
--- !u!114 &-6484639380113410392
MonoBehaviour:
  m_ObjectHideFlags: 3
  m_CorrespondingSourceObject: {fileID: 0}
  m_PrefabInstance: {fileID: 0}
  m_PrefabAsset: {fileID: 0}
  m_GameObject: {fileID: 0}
  m_Enabled: 1
  m_EditorHideFlags: 0
  m_Script: {fileID: 11500000, guid: 4b8bcdf71d7fafa419fca1ed162f5fc9, type: 3}
  m_Name: ColorAdjustments
  m_EditorClassIdentifier: 
  active: 1
  m_AdvancedMode: 0
  postExposure:
    m_OverrideState: 1
    m_Value: 0
  contrast:
    m_OverrideState: 1
    m_Value: 20.5
    min: -100
    max: 100
  colorFilter:
    m_OverrideState: 1
    m_Value: {r: 1, g: 1, b: 1, a: 1}
    hdr: 1
    showAlpha: 0
    showEyeDropper: 1
  hueShift:
    m_OverrideState: 1
    m_Value: 0
    min: -180
    max: 180
  saturation:
    m_OverrideState: 1
    m_Value: 3.1
    min: -100
    max: 100
--- !u!114 &-5392596259061962049
MonoBehaviour:
  m_ObjectHideFlags: 3
  m_CorrespondingSourceObject: {fileID: 0}
  m_PrefabInstance: {fileID: 0}
  m_PrefabAsset: {fileID: 0}
  m_GameObject: {fileID: 0}
  m_Enabled: 1
  m_EditorHideFlags: 0
  m_Script: {fileID: 11500000, guid: 6b24b200358312b4fa1004e2431c2f1f, type: 3}
  m_Name: ShadowsMidtonesHighlights
  m_EditorClassIdentifier: 
  active: 1
  m_AdvancedMode: 0
  shadows:
    m_OverrideState: 1
    m_Value: {x: 1, y: 1, z: 1, w: -0.119709276}
  midtones:
    m_OverrideState: 1
    m_Value: {x: 1, y: 1, z: 1, w: -0.4147071}
  highlights:
    m_OverrideState: 1
    m_Value: {x: 1, y: 1, z: 1, w: 0.07268063}
  shadowsStart:
    m_OverrideState: 1
    m_Value: 0
    min: 0
  shadowsEnd:
    m_OverrideState: 1
    m_Value: 0.3
    min: 0
  highlightsStart:
    m_OverrideState: 1
    m_Value: 0.55
    min: 0
  highlightsEnd:
    m_OverrideState: 1
    m_Value: 1
    min: 0
--- !u!114 &-1990805293439925475
MonoBehaviour:
  m_ObjectHideFlags: 3
  m_CorrespondingSourceObject: {fileID: 0}
  m_PrefabInstance: {fileID: 0}
  m_PrefabAsset: {fileID: 0}
  m_GameObject: {fileID: 0}
  m_Enabled: 1
  m_EditorHideFlags: 0
  m_Script: {fileID: 11500000, guid: 5a6b00fcf518bb94a90b408492e07b44, type: 3}
  m_Name: FilmGrain
  m_EditorClassIdentifier: 
  active: 1
  m_AdvancedMode: 0
  type:
    m_OverrideState: 1
    m_Value: 9
  intensity:
    m_OverrideState: 1
    m_Value: 0.123
    min: 0
    max: 1
  response:
    m_OverrideState: 1
    m_Value: 0.8
    min: 0
    max: 1
  texture:
    m_OverrideState: 1
    m_Value: {fileID: 0}
--- !u!114 &11400000
MonoBehaviour:
  m_ObjectHideFlags: 0
  m_CorrespondingSourceObject: {fileID: 0}
  m_PrefabInstance: {fileID: 0}
  m_PrefabAsset: {fileID: 0}
  m_GameObject: {fileID: 0}
  m_Enabled: 1
  m_EditorHideFlags: 0
  m_Script: {fileID: 11500000, guid: d7fd9488000d3734a9e00ee676215985, type: 3}
  m_Name: Global Volume Profile
  m_EditorClassIdentifier: 
  components:
  - {fileID: 7096461105261304629}
  - {fileID: -9198636326382479249}
  - {fileID: -5392596259061962049}
  - {fileID: 280092295251689466}
  - {fileID: -1990805293439925475}
  - {fileID: -6484639380113410392}
--- !u!114 &280092295251689466
MonoBehaviour:
  m_ObjectHideFlags: 3
  m_CorrespondingSourceObject: {fileID: 0}
  m_PrefabInstance: {fileID: 0}
  m_PrefabAsset: {fileID: 0}
  m_GameObject: {fileID: 0}
  m_Enabled: 1
  m_EditorHideFlags: 0
  m_Script: {fileID: 11500000, guid: 4b709909182ba0943abef2c49ed59205, type: 3}
  m_Name: PaniniProjection
  m_EditorClassIdentifier: 
  active: 1
  m_AdvancedMode: 0
  distance:
    m_OverrideState: 1
    m_Value: 0.162
    min: 0
    max: 1
  cropToFit:
    m_OverrideState: 1
    m_Value: 1
    min: 0
    max: 1
--- !u!114 &7096461105261304629
MonoBehaviour:
  m_ObjectHideFlags: 3
  m_CorrespondingSourceObject: {fileID: 0}
  m_PrefabInstance: {fileID: 0}
  m_PrefabAsset: {fileID: 0}
  m_GameObject: {fileID: 0}
  m_Enabled: 1
  m_EditorHideFlags: 0
  m_Script: {fileID: 11500000, guid: 598e2d32e2c7b0c418e030c3236d663a, type: 3}
  m_Name: ChromaticAberration
  m_EditorClassIdentifier: 
  active: 1
  m_AdvancedMode: 0
  quality:
    m_OverrideState: 1
    m_Value: 2
  spectralLut:
    m_OverrideState: 1
    m_Value: {fileID: 0}
  intensity:
    m_OverrideState: 1
    m_Value: 0.093
    min: 0
    max: 1
  m_MaxSamples:
    m_OverrideState: 1
    m_Value: 6
    min: 3
    max: 24
