%YAML 1.1
%TAG !u! tag:unity3d.com,2011:
--- !u!114 &11400000
MonoBehaviour:
  m_ObjectHideFlags: 0
  m_CorrespondingSourceObject: {fileID: 0}
  m_PrefabInstance: {fileID: 0}
  m_PrefabAsset: {fileID: 0}
  m_GameObject: {fileID: 0}
  m_Enabled: 1
  m_EditorHideFlags: 0
  m_Script: {fileID: 11500000, guid: 9dedfcc941a62446da0fb6c060ee32f1, type: 3}
  m_Name: PauseMenuButtonsSettings
  m_EditorClassIdentifier: 
  normalColor:
    serializedVersion: 2
    rgba: 2533359615
  highlightColor:
    serializedVersion: 2
    rgba: 4284897280
  pressedColor:
    serializedVersion: 2
    rgba: 4288251136
  selectedColor:
    serializedVersion: 2
    rgba: 4282201344
  colorMultiplier: 1
  transitionTime: 0.1
  highlightFontStyle: 0
