%YAML 1.1
%TAG !u! tag:unity3d.com,2011:
--- !u!1045 &1
EditorBuildSettings:
  m_ObjectHideFlags: 0
  serializedVersion: 2
  m_Scenes:
  - enabled: 1
    path: Assets/Scenes/Levels/Menu.unity
    guid: 2ce491f58f30b2f4f86187f81f72019d
  - enabled: 1
    path: Assets/Scenes/Levels/wave 01.unity
    guid: 8194b774797d0444b8de01dd38a49015
  - enabled: 1
    path: Assets/Scenes/Levels/level 1.unity
    guid: d0452d13308104e468918225f0d174d4
  - enabled: 1
    path: Assets/Scenes/Levels/level 2.unity
    guid: b3af2a7d149eec649aad2a323041c55f
  - enabled: 1
    path: Assets/Scenes/Levels/level 3.unity
    guid: d2e97cfae17075248bc7fb5d1467ab88
  - enabled: 1
    path: Assets/Scenes/Levels/level 4.unity
    guid: caebcabc877c4cf4e8a576adc824a71c
  - enabled: 1
    path: Assets/Scenes/Levels/level 5.unity
    guid: fe51f4ffde11ba548a5a72c8f45d8566
  - enabled: 1
    path: Assets/Scenes/Levels/wave 02.unity
    guid: 31950020ed137524793419588b44f465
  - enabled: 1
    path: Assets/Scenes/Levels/level 6.unity
    guid: bdca17880b71eac4487aa81a03b69aa7
  - enabled: 1
    path: Assets/Scenes/Levels/level 7.unity
    guid: 9d42a3c0e0401eb49b6b91a904c0c03a
  - enabled: 1
    path: Assets/Scenes/Levels/level 8.unity
    guid: 5ff1f06b7e8842c4fb9cac0d611aad91
  - enabled: 1
    path: Assets/Scenes/Levels/level 9.unity
    guid: 929f792ee08d46b4b9f306ec82dc24ef
  - enabled: 1
    path: Assets/Scenes/Levels/level 10.unity
    guid: 25dd7e54e0e044a478a129a02f728d92
  - enabled: 1
    path: Assets/Scenes/Levels/wave 03.unity
    guid: 32bfc70375ffc5f47891d52f43316f40
  - enabled: 1
    path: Assets/Scenes/Levels/level 11.unity
    guid: e426677ccdac2ff42af1f61439d3f8b4
  - enabled: 1
    path: Assets/Scenes/Levels/level 12.unity
    guid: 125a50de4a255994b87ef90769c1e5ff
  - enabled: 1
    path: Assets/Scenes/Levels/level 13.unity
    guid: a35f3e3da3aff9b44bb5c45f92803847
  - enabled: 1
    path: Assets/Scenes/Levels/level 14.unity
    guid: 619a76d6bf0e7e34f9e6cc0290f6b4e4
  - enabled: 1
    path: Assets/Scenes/Levels/level 15.unity
    guid: aa1e2f82e3c2dd04ebb30c724e065d0d
  - enabled: 1
    path: Assets/Scenes/Levels/wave 04.unity
    guid: 9490ed0dd6fa16247ba9b62126689828
  - enabled: 1
    path: Assets/Scenes/Levels/Level 16.unity
    guid: 50d56ccff3003e640aaefca35d8a1767
  - enabled: 1
    path: Assets/Scenes/Levels/Level 17.unity
    guid: 1df4d4c82379ce5409c5f32bcfad8570
  - enabled: 1
    path: Assets/Scenes/Levels/Level 18.unity
    guid: e5e99bbdae4ee1b41bfed53e81eec881
  - enabled: 1
    path: Assets/Scenes/Levels/Level 19.unity
    guid: 6a9bdf0d925bd5b46bd782ec818b1fe1
  - enabled: 1
    path: Assets/Scenes/Levels/Level 20.unity
    guid: f7732e7755d58e4439988ce70f6047d5
  - enabled: 1
    path: Assets/Scenes/Levels/wave 05.unity
    guid: d5ebd86786b30da40a0cca3e7910c7ee
  - enabled: 1
    path: Assets/Scenes/Levels/Level 21.unity
    guid: 5402961419d18d34d955375e41527ba8
  - enabled: 1
    path: Assets/Scenes/Levels/Level 22.unity
    guid: 85d22b53fc4bfff419aa32ad285e1bce
  - enabled: 1
    path: Assets/Scenes/Levels/Level 23.unity
    guid: 62c8c820c805ccc4cafe47dc5de96e5e
  - enabled: 1
    path: Assets/Scenes/Levels/Level 24.unity
    guid: 965df843c037b6643bb20423b7b6e003
  - enabled: 1
    path: Assets/Scenes/Levels/Level 25.unity
    guid: 4956150426b64224bbe428cfb76ba890
  - enabled: 1
    path: Assets/Scenes/Levels/wave 06.unity
    guid: 21dc1b60e725e0e42b119036a91cd998
  - enabled: 1
    path: Assets/Scenes/Levels/level 26.unity
    guid: c1358da0e668f0444ba625a86f8d80ef
  - enabled: 1
    path: Assets/Scenes/Levels/level 27.unity
    guid: c477dfeb23541e348a3d8dae9652bb5a
  - enabled: 1
    path: Assets/Scenes/Levels/level 28.unity
    guid: 9cd3cbfac0f747d42bd052b297e34fbf
  - enabled: 1
    path: Assets/Scenes/Levels/level 29.unity
    guid: 17d387075fc844248b4a9c983f87e6a2
  - enabled: 1
    path: Assets/Scenes/Levels/level 30.unity
    guid: 27dabee116a56624bbce0cc26426b6d5
  - enabled: 1
    path: Assets/Scenes/Levels/Credits.unity
    guid: c2db62b4f09c13b42b53b4d6fdccbec9
  m_configObjects: {}
